{
  "channels": [
    {
      "id": 1,
      "name": "Général"
    },
    {
      "id": 2,
      "name": "BDE"
    },
    {
      "id": 3,
      "name": "Vie étudiante"
    },
    {
      "id": 4,
      "name": "Programmation"
    }
  ],
  "messages": [
    {
      "author": "Jean",
      "text": "Bonjour",
      "channelId": "3",
      "id": 1
    },
    {
      "author": "Pierre",
      "text": "Bonjour",
      "channelId": "1",
      "id": 2
    },
    {
      "author": "Jean",
      "text": "Salut",
      "channelId": "1",
      "id": 3
    },
    {
      "author": "Pierre",
      "text": "ça va ?",
      "channelId": "1",
      "id": 4
    },
    {
      "author": "Pierre",
      "text": "oui",
      "channelId": "1",
      "id": 5
    },
    {
      "author": "Jean",
      "text": "yes",
      "channelId": "1",
      "id": 6
    }
  ]
}